{
  "images" : [
    {
      "idiom" : "universal",
      "scale" : "1x"
    },
    {
      "idiom" : "universal",
      "scale" : "2x",
      "filename" : "Detail_View_Send_Btn-1.png"
    },
    {
      "idiom" : "universal",
      "scale" : "3x",
      "filename" : "Detail_View_Send_Btn.png"
    }
  ],
  "info" : {
    "version" : 1,
    "author" : "xcode"
  }
}